[
    {
        "id": "fc1e1a24-2e14-41e6-bbfc-c522c8d7411a",
        "location": "Temple"
    },
    {
        "id": "81f2cdd2-82c1-4972-bc9b-9415b2edf35b",
        "location": "Dallas"
    },
    {
        "id": "ddc796f3-03f3-42ad-91e6-ff462f5aa4d0",
        "location": "Fort Sam Houston"
    },
    {
        "id": "d7c3dcc8-7948-48cc-9020-a1632fd5c33c",
        "location": "Dallas"
    },
    {
        "id": "8d3191d6-273c-4b67-a12a-25ba1fc8d4ac",
        "location": "Austin"
    },
    {
        "id": "eeca7bdb-5a54-44d7-b5a3-c0b2e6168566",
        "location": "Austin"
    },
    {
        "id": "98ef2c33-7893-496d-b027-f3423aa71629",
        "location": "Edinburg"
    },
    {
        "id": "6969979b-85ff-41f7-94c3-511043cdced1",
        "location": "Houston"
    },
    {
        "id": "55738bcf-6749-4c86-ab0b-a8124c4c52f2",
        "location": "Fort Worth"
    },
    {
        "id": "4bb7f139-22ce-4b34-9d7a-941a0b9a0886",
        "location": "Plano"
    },
    {
        "id": "251e4385-e458-4ef2-b097-591835e293be",
        "location": "Houston"
    },
    {
        "id": "a32049e9-b3b1-49ca-8ae6-acc3ebaa39ba",
        "location": "Dallas"
    },
    {
        "id": "b2b57e98-f8ea-49b6-bc64-840f16a25bd6",
        "location": "Dallas"
    },
    {
        "id": "09538a23-5630-4abe-bf4a-b3ce34aa83aa",
        "location": "McAllen"
    },
    {
        "id": "4749a56b-c464-411a-9cbe-325ebf9a2564",
        "location": "Houston"
    },
    {
        "id": "a4b63340-d8b8-4ca6-ad44-d0ca63b3a839",
        "location": "Fort Worth"
    },
    {
        "id": "0cf0fad1-2f9c-488a-83e6-58580ad7aeaa",
        "location": "Dallas"
    },
    {
        "id": "f50c3286-0094-47eb-9127-50bd4fc14873",
        "location": "San Antonio"
    },
    {
        "id": "f47011ef-aa5f-4405-871f-213a4317c353",
        "location": "Lubbock"
    },
    {
        "id": "a8a88787-0c03-4e00-9cd4-063b1ef0a554",
        "location": "El Paso"
    },
    {
        "id": "b4bdda4a-6a1c-43fd-8d99-d607fd3106bf",
        "location": "Galveston"
    },
    {
        "id": "51ef3c8a-7b50-47cb-b427-14ee01dc9e55",
        "location": "Tyler"
    },
    {
        "id": "32385f71-1936-40af-9071-234bcbff1d3a",
        "location": "Kyle"
    },
    {
        "id": "f71e179b-108f-4420-b801-3b131378c2ac",
        "location": "Round Rock"
    },
    {
        "id": "ebaa7300-1f37-4231-95e1-c9a423447d44",
        "location": "Temple"
    },
    {
        "id": "aa91feaa-a5fb-4884-8aa2-df9577582917",
        "location": "Grapevine"
    },
    {
        "id": "b128f850-b129-43f4-84a0-73a782221e7e",
        "location": "Waco"
    },
    {
        "id": "52026276-3774-4fa8-a5a8-222e1fad46bc",
        "location": "McKinney"
    },
    {
        "id": "83620925-8e47-4e40-adde-fa629a789b53",
        "location": "Tyler"
    },
    {
        "id": "4d3cbb30-5ebb-4926-ba2a-0cf9f71aaa44",
        "location": "Corpus Christi"
    },
    {
        "id": "7ce4e085-2768-4526-ba74-8229a56f70af",
        "location": "Fort Worth"
    },
    {
        "id": "8185022a-57c1-4bd8-8fac-3a767bd56893",
        "location": "Corpus Christi"
    },
    {
        "id": "cd8a9c47-4936-4b81-8517-a4600bacbf9e",
        "location": "Lubbock"
    },
    {
        "id": "63ad9239-b381-41db-81cf-acb30608e17a",
        "location": "Lubbock"
    },
    {
        "id": "b4c30744-aff8-4c3f-a8ac-5c5d488996c8",
        "location": "El Paso"
    },
    {
        "id": "57cd7298-5a8f-472f-9a5c-fd813d6f9056",
        "location": "Webster"
    },
    {
        "id": "950dffc5-e5dd-4ada-9f44-604ff695239f",
        "location": "Conroe"
    },
    {
        "id": "dae75a60-7ea4-43a4-ac6f-4299b3a598a3",
        "location": "Kingwood"
    },
    {
        "id": "fa8d00c9-2b40-496d-964d-00d66c923226",
        "location": "Houston"
    },
    {
        "id": "3406c03a-298b-44b3-828e-f8c12d2c2232",
        "location": "Arlington"
    },
    {
        "id": "aa09b7bf-115e-48b1-a408-49517719e321",
        "location": "Denton"
    },
    {
        "id": "5c6fa23d-3e67-4ba4-8133-ae5e19129d2c",
        "location": "McKinney"
    },
    {
        "id": "c3c8f507-4da1-45d4-9892-21610e977406",
        "location": "The Woodlands"
    },
    {
        "id": "6a89a3cf-5ca4-4cd6-8105-1a3f8f02b73f",
        "location": "Amarillo"
    },
    {
        "id": "5ab1ac31-2f64-48d2-9cdf-5a4480b13432",
        "location": "Round Rock"
    },
    {
        "id": "2739c000-8c64-4845-828d-fd454f3b255b",
        "location": "Austin"
    },
    {
        "id": "5fbedbac-3594-40f2-9865-d3de8e1b61ca",
        "location": "Bryan"
    },
    {
        "id": "d95af1be-6ab0-4878-92f3-ffb16a26e4f3",
        "location": "Plano"
    },
    {
        "id": "cf066ed1-c805-4750-9b71-492a8151018c",
        "location": "Wichita Falls"
    },
    {
        "id": "48bf5edf-b6a1-4443-8de3-00e584a094fd",
        "location": "Harlingen"
    },
    {
        "id": "bef750ff-f3c1-48a0-9220-612951763f58",
        "location": "Fort Worth"
    },
    {
        "id": "53247de2-258f-4fb8-b541-da55136ef6f8",
        "location": "Frisco"
    },
    {
        "id": "dc5bcb88-23c1-4803-a9de-addfab8bd547",
        "location": "College Station"
    },
    {
        "id": "d901dda3-6c74-4054-88d4-01d08fe56f11",
        "location": "Rowlett"
    },
    {
        "id": "61bb7808-950e-4142-a83d-8742e9d5347b",
        "location": "Amarillo"
    },
    {
        "id": "313bf025-2cc6-4901-8582-b0812718f52d",
        "location": "Fort Hood"
    },
    {
        "id": "c188135f-6fa9-4946-af27-14167e960e49",
        "location": "San Antonio"
    },
    {
        "id": "35fc6e0d-7e30-44ba-b002-9efba3516769",
        "location": "Longview"
    },
    {
        "id": "062468ea-c6a9-4647-a902-4affd61f05ce",
        "location": "Beaumont"
    },
    {
        "id": "51d5f66e-4b1a-4a71-a96b-66533879cd01",
        "location": "Texarkana"
    },
    {
        "id": "925e3a04-d091-422c-a53a-2c6e83ed2bbc",
        "location": "Victoria"
    },
    {
        "id": "f301fecc-c1f1-4633-9237-dbb65f8a20f9",
        "location": "Victoria"
    },
    {
        "id": "2070d80a-c76b-473d-95b4-9426a4624a69",
        "location": "Laredo"
    },
    {
        "id": "3f9c2c7c-c58e-40a6-b5a2-b763bd0078f6",
        "location": "Corpus Christi"
    },
    {
        "id": "64a6ba7e-8a14-48bc-914c-a2b2c29b1969",
        "location": "Houston"
    },
    {
        "id": "5b3150b1-7011-4113-8c6a-976499657bec",
        "location": "Texs City"
    },
    {
        "id": "6dc0d042-d5d9-4599-b3f9-9666e437755f",
        "location": "Pasadena"
    },
    {
        "id": "e306e633-6f98-4a6e-b358-ae16249d47c4",
        "location": "Tomball"
    },
    {
        "id": "86fe8e79-4864-42cb-84cd-46df969e01c4",
        "location": "Abilene"
    },
    {
        "id": "c4375891-d47c-4847-ae1f-24c4c1da2ec3",
        "location": "Laredo"
    },
    {
        "id": "18f0f628-63be-43ba-a0fb-61eefa023a54",
        "location": "El Paso"
    },
    {
        "id": "33bcb994-f486-470d-8a89-092788edc69b",
        "location": "Longview"
    },
    {
        "id": "d4136c53-1711-4493-a595-fe30ad38f14c",
        "location": "Odessa"
    },
    {
        "id": "e5bc0926-f2d5-4ca8-b533-3356d011fe68",
        "location": "Fort Worth"
    },
    {
        "id": "166c7aed-23d6-4b5f-8581-0a2f2c948cd3",
        "location": "Dallas"
    },
    {
        "id": "fc283de0-7d63-4d61-ae44-4e0e86db290d",
        "location": "Frisco"
    },
    {
        "id": "eb7470e8-b9b7-4856-8d42-c498a5e38feb",
        "location": "Irving"
    },
    {
        "id": "650f7121-a63e-497c-892a-22bd3516e824",
        "location": "Lewisville"
    },
    {
        "id": "7c23e307-0f54-403e-9c3e-28ee3bf3e60a",
        "location": "North Richland Hills"
    },
    {
        "id": "2ebaf2f1-a5e0-4c94-82bf-1840cc2f53b4",
        "location": "Cypress"
    },
    {
        "id": "f07c2084-e757-48fb-bee1-a3d1aa7163fa",
        "location": "Houston"
    },
    {
        "id": "c4c51a60-6773-4d9d-a676-2b1fed041f5e",
        "location": "Katy"
    },
    {
        "id": "581ad890-220a-437d-8a6e-0bce2c321834",
        "location": "Houston"
    },
    {
        "id": "a14bad68-0d7a-4f9b-994c-777c86c14628",
        "location": "Dallas"
    },
    {
        "id": "cc7926bc-63f9-4be0-b17b-41a852d83f03",
        "location": "San Antonio"
    },
    {
        "id": "e7d01341-bd2c-41a4-904a-8354394133a3",
        "location": "Mansfield"
    },
    {
        "id": "0bd270fc-8c68-4f9d-ae6c-483a45ad52a3",
        "location": "Richardson"
    },
    {
        "id": "209847ed-4cee-437d-a9a9-1b7143f8a0a3",
        "location": "San Antonio"
    },
    {
        "id": "723b7f0d-62d6-4919-836e-39159aeeff25",
        "location": "Midland"
    },
    {
        "id": "3c405d72-44ec-4087-8c1d-ac68f8ec7c78",
        "location": "Nacogdoches"
    },
    {
        "id": "6d40002b-9598-4642-8fc3-e05a525e4651",
        "location": "San Antonio"
    },
    {
        "id": "dedeb9b8-2f84-4a69-a5af-ece43ba0bce3",
        "location": "Paris"
    },
    {
        "id": "e5b51bef-4b76-45ff-8020-6ac07070a47d",
        "location": "McAllen"
    },
    {
        "id": "1d0de126-c73e-43d5-afb7-96e74265a93b",
        "location": "San Angelo"
    },
    {
        "id": "ac342b9f-0a9a-4c22-b4c7-dade0adf3754",
        "location": "Houston"
    },
    {
        "id": "8b0f4bb6-3d45-4b2a-bb49-720466f14fbc",
        "location": "Arlington"
    },
    {
        "id": "0997a5a4-0240-4d68-87fd-f1ed9f7984dd",
        "location": "Fort Worth"
    },
    {
        "id": "b49f9df2-0711-4d92-aa67-07084e7d8a01",
        "location": "Bedford"
    },
    {
        "id": "7f1d67e5-5c5b-4e5e-8ff3-91a8ab6c9d84",
        "location": "Fort Worth"
    },
    {
        "id": "4b01e691-4811-4f86-94d2-5a8eef34b394",
        "location": "Denison"
    },
    {
        "id": "a48fb634-c92d-4856-bc00-973e68dcf87d",
        "location": "El Paso"
    },
    {
        "id": "d827b4a1-ef3b-4316-a899-163fbda4bb13",
        "location": "El Paso"
    },
    {
        "id": "543fa940-8edd-4f07-8765-bddbfc11d34f",
        "location": "Webster"
    },
    {
        "id": "915be428-6c0c-47d7-994a-3d61403462d6",
        "location": "League City"
    },
    {
        "id": "f930c7ac-cb94-4662-b1f7-ce532a60a96e",
        "location": "Brownsville"
    },
    {
        "id": "37c8e581-d079-4c77-b4e3-71dbbebe04b9",
        "location": "Brownsville"
    },
    {
        "id": "c25c1535-83ed-4154-8c62-dd0d323e703c",
        "location": "Texarkana"
    },
    {
        "id": "fe830908-344d-4ef0-b569-08a32bf8aa0c",
        "location": "Sherman"
    },
    {
        "id": "f3c77d4a-d2a7-4a0f-81d4-1ebd1f81b192",
        "location": "Killeen"
    },
    {
        "id": "5ae3b1c6-598a-43c9-966c-4beff2e9f5a3",
        "location": "Lampasas"
    },
    {
        "id": "c16e2124-a5b1-4589-8b94-189f35144886",
        "location": "Waco"
    },
    {
        "id": "0d7a4fd5-66a8-4981-8723-1172c4ba6ef8",
        "location": "Luling"
    },
    {
        "id": "479bc02d-c9b1-4fe7-870c-30374a95db4a",
        "location": "Burnet"
    },
    {
        "id": "81869039-f393-411d-b55f-cc1537e09159",
        "location": "Austin"
    },
    {
        "id": "6c3f0cc6-d4e7-451f-806a-c67611f31e83",
        "location": "Austin"
    },
    {
        "id": "c4dca673-7ff3-4204-97df-4166535b3e88",
        "location": "Austin"
    },
    {
        "id": "81d3d19a-b47c-4aef-8bdc-d50ea051e27f",
        "location": "Ballinger"
    },
    {
        "id": "3c3b6149-3188-4cde-b0ec-5539715acd07",
        "location": "Beaumont"
    },
    {
        "id": "f4d83fbc-fe31-4bcb-b3ea-7dae3bc8b847",
        "location": "San Antonio"
    },
    {
        "id": "cb756b4b-10c6-42b5-996f-90ba1e6fd699",
        "location": "Brenham"
    },
    {
        "id": "32873a8c-fdb3-458c-a9ba-a1d32aa7a9cf",
        "location": "Lakeway"
    },
    {
        "id": "2f4f33cd-0b49-4a87-80c8-e9bdf63eef0f",
        "location": "Marble Falls"
    },
    {
        "id": "bce90d6e-f07c-4a9d-8519-8374495bf452",
        "location": "Round Rock"
    },
    {
        "id": "390250b6-d26b-448d-92ae-4682add8abc2",
        "location": "Taylor"
    },
    {
        "id": "8c327134-746d-4132-ac7e-c24a26bd083f",
        "location": "Waxahachie"
    },
    {
        "id": "56bc3ee0-d3b9-4946-9d4a-898d105d7598",
        "location": "Bellville"
    },
    {
        "id": "5c3db513-5b42-4a59-bcb0-cc389981fe66",
        "location": "Alpine"
    },
    {
        "id": "eff4bf57-1553-4ba3-9373-a9c9708545c6",
        "location": "Brownfield"
    },
    {
        "id": "de23b909-a43a-4836-92d8-197ccdaa9118",
        "location": "Cedar Park"
    },
    {
        "id": "ac7a9b8b-3619-4bde-b82c-2d3d8e6b5e8b",
        "location": "Caldwell"
    },
    {
        "id": "6e483e73-5e3e-446e-ad6c-36dce50bf61b",
        "location": "College Station"
    },
    {
        "id": "92527505-35a6-416a-88fa-2185dcd56107",
        "location": "Navasota"
    },
    {
        "id": "cbae64fe-0ffa-412c-b3bd-c74aea3c4072",
        "location": "Madisonville"
    },
    {
        "id": "ded08831-c115-46e2-8836-1e538998c4ae",
        "location": "Livingston"
    },
    {
        "id": "3b46e65c-30ae-4e37-b5db-a3eb4589e56e",
        "location": "Lufkin"
    },
    {
        "id": "d91270ec-b471-4d3b-87b6-596ac05c700e",
        "location": "Plano"
    },
    {
        "id": "06979c6b-77a4-4756-a04d-a69909af4220",
        "location": "Childress"
    },
    {
        "id": "ee693f56-f217-4688-aa40-c1dcea79ce3c",
        "location": "Marshall"
    },
    {
        "id": "a3e3690a-489f-43cd-b3d9-83e48d43e1d7",
        "location": "Jacksonville"
    },
    {
        "id": "1aa106ec-4927-4f72-907c-1fe42586aea5",
        "location": "Sulphur Springs"
    },
    {
        "id": "7a3d3006-bcf7-4672-a128-c4834f99fbce",
        "location": "Winnsboro"
    },
    {
        "id": "9990054b-dc94-4977-ae22-4b78fecc355f",
        "location": "San Antonio"
    },
    {
        "id": "a5dbb653-85fe-4687-963f-b62950457dfd",
        "location": "San Antonio"
    },
    {
        "id": "b71583e8-9143-4fa0-b4d8-e7f56c626a7b",
        "location": "New Braunfels"
    },
    {
        "id": "98d3bda5-40b2-415d-85ba-305f12ac6c4e",
        "location": "San Marcos"
    },
    {
        "id": "fc09a045-f124-4ea7-b5b6-8f71fddb4659",
        "location": "San Antonio"
    },
    {
        "id": "740208d6-4992-4d70-9b2e-165e9116545f",
        "location": "Jasper"
    },
    {
        "id": "76d200f0-aa99-4d87-a742-58a1e2d462bb",
        "location": "Alice"
    },
    {
        "id": "70554826-cee3-426f-adfc-3eed9da39d74",
        "location": "Beeville"
    },
    {
        "id": "5ebcc45c-2984-4434-8e1a-7de2dcac9513",
        "location": "Corpus Christi"
    },
    {
        "id": "19d580d2-2df2-41f4-a8f2-f7ffe85dd7eb",
        "location": "Kingsville"
    },
    {
        "id": "f4564522-ae2b-4590-b4fc-816c4a35397b",
        "location": "Atlanta"
    },
    {
        "id": "86426253-96a0-40d6-b13b-c2b1c5e8a20a",
        "location": "Snyder"
    },
    {
        "id": "6a3cc115-2821-4c37-b40a-e069ca737c56",
        "location": "Coleman"
    },
    {
        "id": "f93501e9-16c7-451b-b557-5ddf5bf3536f",
        "location": "Wellington"
    },
    {
        "id": "5a4f779a-f5e2-451a-9ba6-935172ea4e52",
        "location": "Columbus"
    },
    {
        "id": "05091421-22da-4ee4-87c0-27de28f7b89d",
        "location": "Junction"
    },
    {
        "id": "242a84d5-eb76-4738-826a-341353245b18",
        "location": "Comanche"
    },
    {
        "id": "5298771c-f52e-47d8-a77e-eb3c82eb0395",
        "location": "Eden"
    },
    {
        "id": "6554f7c9-7c3e-4ed3-973e-6ada6c3b1989",
        "location": "Floresville"
    },
    {
        "id": "18367db0-855a-462d-806f-94c57680159e",
        "location": "Dalhart"
    },
    {
        "id": "5303fbba-700e-47fd-8ebb-1718be250b38",
        "location": "Corpus Christi"
    },
    {
        "id": "8fca4229-3e16-4cf6-9022-a27b6583e72a",
        "location": "Gatesville"
    },
    {
        "id": "3dea3182-fe04-4a70-be3b-c3daa82514a9",
        "location": "Levelland"
    },
    {
        "id": "73ca9837-4ee1-4d08-8a27-ed39ea14539c",
        "location": "Plainview"
    },
    {
        "id": "6d168b79-6a0f-4350-9080-c90fbde9315e",
        "location": "Cuero"
    },
    {
        "id": "9a8eb0cf-f11a-4c59-86f8-6236666a579c",
        "location": "Van Horn"
    },
    {
        "id": "7485eaef-ec3e-4796-ae46-de915a267986",
        "location": "Dallas"
    },
    {
        "id": "88af9d23-1455-4f16-bea3-193fad9c6cdc",
        "location": "Mesquite"
    },
    {
        "id": "d7e41ac1-3053-44d4-a3a2-053b62ce4ea3",
        "location": "Victoria"
    },
    {
        "id": "312402fd-1424-4ee4-ac28-fb72389ea09b",
        "location": "Carrizo Springs"
    },
    {
        "id": "2472f1c5-e14c-41fe-a055-1c51114e2a83",
        "location": "El Campo"
    },
    {
        "id": "716258a1-fff2-4a7e-8d58-3a8d63c17914",
        "location": "Electra"
    },
    {
        "id": "8eae6632-2627-44be-bf20-6b7c95015401",
        "location": "Ennis"
    },
    {
        "id": "ed906508-ed71-4b83-a0b5-61c09691322e",
        "location": "Jacksboro"
    },
    {
        "id": "72daf91c-9afd-4b26-a8b7-0a3a4cc8b5c2",
        "location": "Rotan"
    },
    {
        "id": "5d0f8eae-107c-4cae-9fe0-4d698be7efb7",
        "location": "Eagle Pass"
    },
    {
        "id": "8bf18a1c-2ee2-44d0-8ffd-7330811231e0",
        "location": "Fairfield"
    },
    {
        "id": "53a1252b-5acd-41eb-a2bc-2dbc9ffac942",
        "location": "Pearsall"
    },
    {
        "id": "310d7d3d-6297-460d-9262-00ee286ece9b",
        "location": "Borger"
    },
    {
        "id": "6ea969f9-e786-446d-addd-c5fe2312feb1",
        "location": "Clifton"
    },
    {
        "id": "ac763b39-55d6-4021-9fa3-6d739c877434",
        "location": "Graham"
    },
    {
        "id": "c4578ff0-b42a-4e52-ab82-4ff88abb306d",
        "location": "Seguin"
    },
    {
        "id": "9bc2dab9-fe99-4af6-963d-63b3f27f096f",
        "location": "Hamilton"
    },
    {
        "id": "56596e90-d6ae-481f-afc7-f2b6690e232a",
        "location": "Olney"
    },
    {
        "id": "1962b0b7-8931-409e-8c1c-5b9399d7afd7",
        "location": "Spearman"
    },
    {
        "id": "ec461684-777b-433c-8b62-1ef3a05fb389",
        "location": "Quanah"
    },
    {
        "id": "63e391bb-669f-4c83-a843-f0b041e1e3d7",
        "location": "Harlingen"
    },
    {
        "id": "aaf1d456-3d63-4a55-86aa-e11f23673b33",
        "location": "Pearland"
    },
    {
        "id": "11e8b13b-32d7-43ad-9db6-77c095817fad",
        "location": "Houston"
    },
    {
        "id": "eb0650a6-1f2b-45f5-8ef9-80ccccf2c6c2",
        "location": "Austin"
    },
    {
        "id": "a17777bd-80d0-4f95-83c6-2040bc5d570a",
        "location": "Brady"
    },
    {
        "id": "0b5c5531-10c8-49ea-b6ec-9866f8e4a415",
        "location": "Brownwood"
    },
    {
        "id": "91a69be9-3c66-43ec-8e15-2ba84fb40d95",
        "location": "Abilene"
    },
    {
        "id": "03fe454d-0f30-48f3-9d65-b5c3f0227a1a",
        "location": "Hereford"
    },
    {
        "id": "ad4c95b4-6319-4491-b59f-f1d4a651f80d",
        "location": "Hillsboro"
    },
    {
        "id": "ee28e14e-1d57-402a-914b-102fe24a60a0",
        "location": "Greenville"
    },
    {
        "id": "60128bb9-4d24-4794-9c86-6fd1e588448f",
        "location": "Huntsville"
    },
    {
        "id": "079661a1-a6fc-490e-8d1b-45d47697f826",
        "location": "Edna"
    },
    {
        "id": "de92a175-7928-41dc-92c8-2c2fd64a5978",
        "location": "Weslaco"
    },
    {
        "id": "efc2fe77-d8db-49d1-93b0-a74b6d4cb0e5",
        "location": "Knox City"
    },
    {
        "id": "93a3bd27-3462-4246-9261-2289d6257ab4",
        "location": "Granbury"
    },
    {
        "id": "cc861891-cb7b-428d-900c-528314e6dac8",
        "location": "Littlefield"
    },
    {
        "id": "447cb92e-75cb-4a8c-bba9-fdad70e4149d",
        "location": "Hallettsville"
    },
    {
        "id": "ad326c97-4291-4ec4-81a2-d59980f4ce00",
        "location": "Sonora"
    },
    {
        "id": "41cd66f0-52c6-4e40-a21c-2cfa7654f797",
        "location": "Groesbeck"
    },
    {
        "id": "c49d3b85-df8e-4368-8cd1-87cb8066c318",
        "location": "Bay City"
    },
    {
        "id": "923d668d-4e72-43f2-a005-21ad5325a017",
        "location": "Lamesa"
    },
    {
        "id": "a5c45f85-297b-454e-a752-008a94f1fb8b",
        "location": "Weatherford"
    },
    {
        "id": "5bc4e4ef-0d93-44c7-8bbb-08332a1ff24f",
        "location": "Hondo"
    },
    {
        "id": "77506c0d-a88c-461c-ac73-36718e51cf80",
        "location": "Houston"
    },
    {
        "id": "aff9c12f-a502-45e5-a1fc-23f7c828321b",
        "location": "Pearland"
    },
    {
        "id": "fbf1cb48-baeb-4a62-ad9b-bb341c04c97f",
        "location": "Houston"
    },
    {
        "id": "5b433d74-e6bb-4d44-847e-6510b2480e14",
        "location": "Sugar Land"
    },
    {
        "id": "79bcee8a-0d0f-4e8e-aa11-f1615300514c",
        "location": "Dumas"
    },
    {
        "id": "cbf74779-a0df-412b-9fed-ab7779ed454d",
        "location": "Gonzales"
    },
    {
        "id": "7dc00834-bd9a-46e6-84b4-b007fa1c332e",
        "location": "Seminole"
    },
    {
        "id": "0d76f988-94d5-4ed4-9fbe-c13f49187e06",
        "location": "Port Lavaca"
    },
    {
        "id": "60abc7e0-878b-482b-8b28-1cd91a08054b",
        "location": "Jourdanton"
    },
    {
        "id": "b22733dd-d7dd-49a1-9bc4-a2501ca948e6",
        "location": "San Antonio"
    },
    {
        "id": "36d00dde-e46d-48d1-9c7d-b2ab91477c28",
        "location": "San Antonio"
    },
    {
        "id": "c5ff9bfc-4686-482e-8f0e-ef1958950eb2",
        "location": "San Antonio"
    },
    {
        "id": "0bfed255-21a9-40b3-bb27-0eb7c125ef70",
        "location": "Llano"
    },
    {
        "id": "f6347ba9-7924-4a81-af48-81d0818f6269",
        "location": "Mission"
    },
    {
        "id": "d4096e62-e6d5-4d0e-9d6a-c88505b9ccc2",
        "location": "San Antonio"
    },
    {
        "id": "c7075db6-c9e4-4f0c-a97e-84ecd75c9300",
        "location": "Colorado City"
    },
    {
        "id": "2c26b5a1-5341-4052-ae33-5ee60b712ff4",
        "location": "Muenster"
    },
    {
        "id": "73eae9f6-c786-45a4-8525-b358ea2ee495",
        "location": "Nacogdoches"
    },
    {
        "id": "7877e98c-9cb2-49a3-ac36-6683bdfcacf2",
        "location": "Corsicana"
    },
    {
        "id": "65894779-72f2-447b-8575-35a7a88e8a11",
        "location": "Austin"
    },
    {
        "id": "d067e2ff-62a5-4566-a1cc-81ab0e62fd30",
        "location": "Gainesville"
    },
    {
        "id": "c38ade3a-b3bf-4ffa-8055-cfdc906dd3a4",
        "location": "San Antonio"
    },
    {
        "id": "89c510d2-de15-401f-b838-289e596d2f3b",
        "location": "Live Oak"
    },
    {
        "id": "d4ca87ef-b7d1-49b9-a399-e7843f4024b6",
        "location": "Richmond"
    },
    {
        "id": "a3f9d942-6fd7-4931-a2bb-02e2d1166972",
        "location": "Richmond"
    },
    {
        "id": "d0093581-43e1-44f8-b6cb-b3bd675be2f9",
        "location": "Perryton"
    },
    {
        "id": "f645c9ff-7695-4f4d-a228-345b1864f40d",
        "location": "Odessa"
    },
    {
        "id": "c4982dba-faf5-4425-b398-d870c487d9bc",
        "location": "Kenedy"
    },
    {
        "id": "5db9a267-a9ce-4009-a754-59a31b457a12",
        "location": "Palestine"
    },
    {
        "id": "5a1c43f1-a188-409f-9e4e-84a29a3ec308",
        "location": "Mineral Wells"
    },
    {
        "id": "8e9e0c85-9f62-40a1-9460-5cb45f11162f",
        "location": "Pampa"
    },
    {
        "id": "9c47398e-c086-4e51-ba7c-63091654ffe4",
        "location": "Wheeler"
    },
    {
        "id": "d244619c-8ef0-49e4-afe1-95be81ee8f35",
        "location": "Mexia"
    },
    {
        "id": "00c31c08-c537-4b31-9f23-fb3f875b5147",
        "location": "Andrews"
    },
    {
        "id": "3819750a-7132-4504-bc6a-3e237d6f2cb3",
        "location": "Kerrville"
    },
    {
        "id": "161e979c-b3f7-4bc2-8ad3-9b7483d9c462",
        "location": "Dimmit"
    },
    {
        "id": "5fb3ee93-41a6-4da4-a593-3ea9677e4935",
        "location": "Big Lake"
    },
    {
        "id": "cf4ea7ce-4edb-41af-ab82-3ad99071b6da",
        "location": "Refugio"
    },
    {
        "id": "8eb6d282-d5f7-4616-b2e2-d6fb50ef1d90",
        "location": "New Braunfels"
    },
    {
        "id": "ecd6e97c-ed34-41db-9d05-80151bdea645",
        "location": "Eagle Lake"
    },
    {
        "id": "b52da938-049e-4a19-9297-f6d16f5a91e4",
        "location": "Sweetwater"
    },
    {
        "id": "abebe634-6c8b-4efb-be40-d3d334fa5443",
        "location": "Hemphill"
    },
    {
        "id": "5458765f-15da-465c-ba2f-427e8db2df3e",
        "location": "Big Spring"
    },
    {
        "id": "abe99b0e-d94d-4a11-9374-5a42f5d6812b",
        "location": "Eldorado"
    },
    {
        "id": "93a621e3-1da1-4878-b51c-9b3bb11c3fed",
        "location": "Harker Heights"
    },
    {
        "id": "99fbb442-63f7-4543-9909-f6c37cec9c81",
        "location": "Seymour"
    },
    {
        "id": "2f8d5ffe-ab2b-48ab-8b02-34bf5c242d7b",
        "location": "San Angelo"
    },
    {
        "id": "fa69895e-52c5-43c3-becb-9e53f1bbffa7",
        "location": "Edinburg"
    },
    {
        "id": "02f31445-1196-445a-81be-876ecd1ea228",
        "location": "McAllen"
    },
    {
        "id": "50f73265-d82b-4a37-a334-d0bc2e56c4bf",
        "location": "Georgetown"
    },
    {
        "id": "630db7ef-0715-421b-9b8b-e2ab96e56742",
        "location": "Austin"
    },
    {
        "id": "6a29742c-4c78-4355-878d-aedb4231096b",
        "location": "San Antonio"
    },
    {
        "id": "cd3b8014-cecb-4f3c-9550-5e08a0e87803",
        "location": "Sugar Land"
    },
    {
        "id": "4e45c2cf-2fa6-4f47-9c69-c9f2bbe15526",
        "location": "Rio Grande City"
    },
    {
        "id": "b1d343c4-2cce-48cf-a094-53f49e04e5ff",
        "location": "Breckenridge"
    },
    {
        "id": "9c0ec090-1902-4296-8cf4-40b160768e74",
        "location": "Sweeny"
    },
    {
        "id": "6407c362-068c-44a6-ac67-e65f4360963c",
        "location": "Tulia"
    },
    {
        "id": "92e11fa2-5d5e-42cb-b3df-3a34fe382f66",
        "location": "The Woodlands"
    },
    {
        "id": "ddd29df9-d0eb-4084-8593-e558602f9edd",
        "location": "Houston"
    },
    {
        "id": "5e60cc5a-d33f-473d-befe-1c0a45d00309",
        "location": "Azle"
    },
    {
        "id": "fedb22b7-3516-4e64-b05c-95fa44410c31",
        "location": "Cleburne"
    },
    {
        "id": "e6c594a3-a1e2-41ee-8826-e8f645168b81",
        "location": "Stephenville"
    },
    {
        "id": "a37733bb-44f3-461c-865f-f745fa75d128",
        "location": "Mansfield"
    },
    {
        "id": "b978c7b0-a261-4988-86ed-457afaed5e00",
        "location": "Burleson"
    },
    {
        "id": "d1c7dc3e-c7d6-40bd-9ce8-9a013e8f15f9",
        "location": "Corpus Christi"
    },
    {
        "id": "d5f6ff30-87fc-44f8-b3cd-76c77add947f",
        "location": "El Paso"
    },
    {
        "id": "6a8b03e2-d159-411b-b798-6c178115672a",
        "location": "El Paso"
    },
    {
        "id": "9f5b0123-9ba3-4420-a3bf-0bd101de41f2",
        "location": "Port Arthur"
    },
    {
        "id": "6e7cebb0-a5c0-4311-95f3-622e7f13d0d2",
        "location": "Houston"
    },
    {
        "id": "871027b4-e70a-403d-b051-03723c4635d8",
        "location": "Throckmorton"
    },
    {
        "id": "53b9c71e-86d9-4663-88d0-525cf0838036",
        "location": "Mount Pleasant"
    },
    {
        "id": "050d1476-dec0-4054-9818-91389122e6bd",
        "location": "Bonham"
    },
    {
        "id": "73e8399d-f93a-4e3f-8fda-97ecd38c2591",
        "location": "Woodville"
    },
    {
        "id": "4c55e274-7744-42bf-8625-5ea6544ec5e7",
        "location": "Tyler"
    },
    {
        "id": "27392a52-16e2-47af-bcf9-4447fd42eda6",
        "location": "Athens"
    },
    {
        "id": "3f478f38-6353-41cb-b589-f6bce5edf20a",
        "location": "Carthage"
    },
    {
        "id": "d6570b84-577c-44ac-bb79-c2a0a6738850",
        "location": "Henderson"
    },
    {
        "id": "39c38205-bb64-402c-b508-a5edfb8d92b3",
        "location": "Jacksonville"
    },
    {
        "id": "1655ee5a-f0ff-4e08-b060-9186566c04ab",
        "location": "Pittsburg"
    },
    {
        "id": "e7593a01-2229-4aa6-b9ce-9733b908dd80",
        "location": "Quitman"
    },
    {
        "id": "a4cd3bd0-a885-469a-a34d-b52bf5761711",
        "location": "Angleton"
    },
    {
        "id": "fd0979bc-aebe-4f2c-9dd3-b3b2f1e8f4b6",
        "location": "Uvalde"
    },
    {
        "id": "faf85f10-3bd7-4505-9041-681f35757a18",
        "location": "Del Rio"
    },
    {
        "id": "ab1c34e8-a892-4014-bb13-14c262c98762",
        "location": "Monahans"
    },
    {
        "id": "26ebecd4-b44a-4b15-89cf-5332c902038e",
        "location": "Dallas"
    },
    {
        "id": "facfef4c-4c2c-4250-8625-bc258efdefb3",
        "location": "Vernon"
    },
    {
        "id": "d2f6877b-6813-4eca-b7f8-a013d168ceb4",
        "location": "Dallas"
    },
    {
        "id": "67425e11-834f-4c4b-9ca1-deb8d388085f",
        "location": "Decatur"
    },
    {
        "id": "c78de368-74f9-4279-8775-4035923c82d4",
        "location": "Lufkin"
    },
    {
        "id": "53f692a0-42a2-4e9b-813b-184902ef4982",
        "location": "Yoakum"
    },
    {
        "id": "dfa1baca-574e-4e81-885c-e2a71fd4d62e",
        "location": "Denver City"
    }
]