[
    "Immunosuppressants",
    "Anti-Inflammatory Drugs",
    "Biologics",
    "Corticosteroids",
    "Pain Relievers",
    "Nsaids (Nonsteroidal Anti-Inflammatory Drugs)",
    "Dmards (Disease-Modifying Antirheumatic Drugs)",
    "Tnf Inhibitors",
    "Il-17 Inhibitors",
    "Jak Inhibitors",
    "Sglt2 Inhibitors",
    "Glp-1 Receptor Agonists",
    "Dpp-4 Inhibitors",
    "Methotrexate",
    "Hydroxychloroquine",
    "Sulfasalazine",
    "Leflunomide",
    "Azathioprine",
    "Cyclophosphamide",
    "Mycophenolate Mofetil",
    "Tacrolimus",
    "Sirolimus",
    "Belimumab",
    "Rituximab",
    "Abatacept",
    "Anakinra",
    "Tofacitinib",
    "Baricitinib",
    "Upadacitinib",
    "Filgotinib",
    "Secukinumab",
    "Ixekizumab",
    "Brodalumab",
    "Guselkumab",
    "Tildrakizumab",
    "Ustekinumab",
    "Risankizumab",
    "Adalimumab",
    "Etanercept",
    "Infliximab",
    "Certolizumab Pegol",
    "Golimumab",
    "Vedolizumab",
    "Natalizumab",
    "Ocrelizumab",
    "Alemtuzumab",
    "Cladribine",
    "Fingolimod",
    "Siponimod",
    "Ponesimod",
    "Teriflunomide",
    "Dimethyl Fumarate",
    "Monoclonal Antibodies",
    "Intravenous Immunoglobulin (Ivig)",
    "Plasmapheresis",
    "Stem Cell Transplantation",
    "Low-Dose Naltrexone",
    "Antibiotics For Associated Infections",
    "Antimalarials",
    "Antifungals",
    "Antivirals",
    "Dietary Supplements (E.G., Vitamin D, Omega-3)",
    "Probiotics",
    "Gluten-Free Diet",
    "Paleo Diet",
    "Aip (Autoimmune Protocol) Diet",
    "Vegan Diet",
    "Ketogenic Diet",
    "Low-Fodmap Diet",
    "Scd (Specific Carbohydrate Diet)",
    "Elimination Diet",
    "Physical Therapy",
    "Occupational Therapy",
    "Speech Therapy",
    "Cognitive Behavioral Therapy",
    "Mindfulness And Stress Reduction Techniques",
    "Massage Therapy",
    "Hydrotherapy",
    "Exercise Programs",
    "Yoga",
    "Pilates",
    "Tai Chi",
    "Qigong",
    "Biofeedback",
    "Hypnotherapy",
    "Chiropractic Care",
    "Aromatherapy",
    "Herbal Medicine",
    "Homeopathy",
    "Naturopathy",
    "Traditional Chinese Medicine (Tcm)",
    "Ayurveda",
    "Cryotherapy",
    "Heat Therapy",
    "Meditation",
    "Breathing Exercises",
    "Art Therapy",
    "Music Therapy",
    "Dance/Movement Therapy",
    "Animal-Assisted Therapy",
    "Support Groups",
    "Counseling",
    "Psychotherapy",
    "Neuromodulation Therapies",
    "Sleep Management",
    "Weight Management",
    "Smoking Cessation",
    "Alcohol Moderation",
    "Substance Abuse Treatment",
    "Personalized Medicine",
    "Gene Editing Techniques",
    "Nanomedicine",
    "Wearable Health Devices",
    "Telehealth Consultations",
    "Health Coaching",
    "Nutritional Counseling",
    "Environmental Modifications",
    "Allergen Avoidance",
    "Detoxification Therapies",
    "Blood Pressure Management",
    "Blood Sugar Control",
    "Infection Control Measures",
    "Vaccinations",
    "Emergency Treatments For Acute Flares",
    "Hospitalization For Severe Cases",
    "Surgical Interventions For Complications",
    "Organ Transplants",
    "Joint Replacements",
    "Rehabilitation Services",
    "Palliative Care",
    "End-Of-Life Care",
    "Environmental Enrichment Therapies",
    "Cognitive Enhancement Therapy",
    "Digital Health Applications",
    "Virtual Reality Therapy",
    "Advanced Imaging For Early Diagnosis",
    "Microbiome Therapy",
    "Fecal Microbiota Transplantation",
    "Helminthic Therapy",
    "Light Therapy",
    "Sound Therapy",
    "Peptide Therapy",
    "Laser Therapy",
    "Electromagnetic Therapy",
    "Ozone Therapy",
    "Iv Vitamin Therapy",
    "Hyperbaric Oxygen Therapy",
    "Regenerative Medicine",
    "Personalized Immunotherapy",
    "Epigenetic Therapy",
    "Advanced Prosthetics"
]